Playing with the UK economics dataset
…
#Removing all the columns with no headers (or that only show changes in percentages from the past year)
uk_dataxl_tidy <- uk_dataxl_tidy[,-c(3,5,7,9,11,13, 27, 40, 55, 62, 64, 66, 68,69, 73,75,74,77)]
uk_dataxl_tidy <- uk_dataxl_tidy[,-c(26, 38, 52, 56, 58, 61, 63, 65)]
uk_dataxl_tidy <- uk_dataxl_tidy[,-c(17)]

#Transforming all the columns on the dataframe to Numeric values, as oposed to Chr
uk_dataxl_tidy[] <- lapply(uk_dataxl_tidy, function(x) {
    as.numeric(x)
})

#Renaming columns
uk_dataxl_tidy <- rename(uk_dataxl_tidy, c("Description" = "Year", "Population (GB+NI)" = "Population"))
uk_dataxl_tidy

## # A tibble: 88 x 56
##     Year `Real GDP of En~ `Real GDP of En~ `Real UK GDP at~
##    <dbl>            <dbl>            <dbl>            <dbl>
##  1  1929          215534.          182494.          245205.
##  2  1930          213608.          180903.          243254.
##  3  1931          202987.          171948.          231969.
##  4  1932          203872.          172808.          232128.
##  5  1933          210588.          178615.          239510.
##  6  1934          223656.          189820.          253801.
##  7  1935          231881.          196928.          263187.
##  8  1936          243283.          206743.          275737.
##  9  1937          251717.          214047.          285387.
## 10  1938          253383.          215602.          287602.
## # ... with 78 more rows, and 52 more variables: `Real UK GDP at factor
## #   cost, geographically-consistent estimate based on post-1922
## #   borders` <dbl>, `Index of real UK GDP at factor cost - based on
## #   changing political boundaries,` <dbl>, `Composite estimate of English
## #   and (geographically-consistent) UK real GDP at factor cost` <dbl>,
## #   `HP-filter of log of real composite estimate of English and UK real
## #   GDP at factor cost` <dbl>, `Real UK gross disposable national income
## #   at market prices, constant border estimate` <dbl>, `Real
## #   consumption` <dbl>, `Real investment` <dbl>, `Stockbuilding
…
